Kahve içtikten sonra data/YKK.CSV

Record Length,40000,,Source,CH1
Sample Interval,CH1:0.0003999999899,,Second,Volt
Vertical Units,CH1:V,,-7.85999965668,1.00000,
Vertical Scale,CH1:5.00,,-7.85959959030,0.80000,
Vertical Offset,CH1:-5.30000,,-7.85920000076,0.80000,
Horizontal Units,s,,-7.85879993439,0.80000,
Horizontal Scale,1.0000000000,,-7.85839986801,0.80000,
Model Number,SDS107X,,-7.85799980164,0.80000,
Serial Number,NDS1MCB4164071,,-7.85759973526,0.80000,
Software Version,6.01.01.18,,-7.85719966888,0.80000,
,,,-7.85679960251,1.00000,
,,,-7.85640001297,0.80000,
,,,-7.85599994659,1.00000,
,,,-7.85559988022,0.80000,
,,,-7.85519981384,1.00000,
,,,-7.85479974747,1.00000,
,,,-7.85439968109,0.80000,
,,,-7.85399961472,1.00000,
,,,-7.85360002518,1.00000,
,,,-7.85319995880,1.00000,
,,,-7.85279989243,1.00000,
,,,-7.85239982605,0.80000,
,,,-7.85199975967,1.00000,
,,,-7.85159969330,1.00000,
,,,-7.85119962692,0.80000,
,,,-7.85080003738,1.00000,
,,,-7.85039997101,1.00000,
,,,-7.84999990463,0.80000,
,,,-7.84959983826,1.00000,
,,,-7.84919977188,0.80000,
,,,-7.84879970551,0.60000,
,,,-7.84839963913,0.80000,
,,,-7.84799957275,0.80000,
,,,-7.84759998322,0.60000,
,,,-7.84719991684,0.80000,
,,,-7.84679985046,0.60000,
,,,-7.84639978409,0.60000,
,,,-7.84599971771,0.60000,
,,,-7.84559965134,0.60000,
,,,-7.84519958496,0.60000,
,,,-7.84479999542,0.80000,
,,,-7.84439992905,0.80000,
,,,-7.84399986267,0.80000,
,,,-7.84359979630,0.80000,
,,,-7.84319972992,0.80000,
,,,-7.84279966354,0.60000,
,,,-7.84239959717,0.80000,
,,,-7.84200000763,0.80000,
,,,-7.84159994125,0.80000,
,,,-7.84119987488,0.80000,
,,,-7.84079980850,0.80000,
,,,-7.84039974213,0.60000,
,,,-7.83999967575,0.80000,
,,,-7.83959960938,0.60000,
,,,-7.83920001984,0.60000,
,,,-7.83879995346,0.80000,
,,,-7.83839988708,0.60000,
,,,-7.83799982071,0.60000,
,,,-7.83759975433,0.60000,
,,,-7.83719968796,0.60000,
,,,-7.83679962158,0.60000,
,,,-7.83640003204,0.60000,
,,,-7.83599996567,0.60000,
,,,-7.83559989929,0.60000,
,,,-7.83519983292,0.60000,
,,,-7.83479976654,0.40000,
,,,-7.83439970016,0.40000,
,,,-7.83399963379,0.40000,
,,,-7.83359956741,0.40000,
,,,-7.83319997787,0.40000,
,,,-7.83279991150,0.40000,
,,,-7.83239984512,0.40000,
,,,-7.83199977875,0.40000,
,,,-7.83159971237,0.40000,
,,,-7.83119964600,0.40000,
,,,-7.83079957962,0.40000,
,,,-7.83039999008,0.40000,
,,,-7.82999992371,0.40000,
,,,-7.82959985733,0.40000,
,,,-7.82919979095,0.40000,
,,,-7.82879972458,0.40000,
,,,-7.82839965820,0.40000,
,,,-7.82799959183,0.40000,
,,,-7.82760000229,0.40000,
,,,-7.82719993591,0.40000,
,,,-7.82679986954,0.20000,
,,,-7.82639980316,0.40000,
,,,-7.82599973679,0.20000,
,,,-7.82559967041,0.40000,
,,,-7.82519960403,0.40000,
,,,-7.82480001450,0.40000,
,,,-7.82439994812,0.40000,
,,,-7.82399988174,0.40000,
,,,-7.82359981537,0.40000,
,,,-7.82319974899,0.20000,
,,,-7.82279968262,0.20000,
,,,-7.82239961624,0.40000,
,,,-7.82200002670,0.20000,
,,,-7.82159996033,0.40000,
,,,-7.82119989395,0.20000,
,,,-7.82079982758,0.40000,
,,,-7.82039976120,0.40000,
,,,-7.81999969482,0.20000,
,,,-7.81959962845,0.40000,
,,,-7.81920003891,0.40000,
,,,-7.81879997253,0.40000,
,,,-7.81839990616,0.20000,
,,,-7.81799983978,0.40000,
,,,-7.81759977341,0.20000,
,,,-7.81719970703,0.20000,
,,,-7.81679964066,0.20000,
,,,-7.81639957428,0.20000,
,,,-7.81599998474,0.20000,
,,,-7.81559991837,0.20000,
,,,-7.81519985199,0.20000,
,,,-7.81479978561,0.20000,
,,,-7.81439971924,0.20000,
,,,-7.81399965286,0.20000,
,,,-7.81359958649,0.20000,
,,,-7.81319999695,0.40000,
,,,-7.81279993057,0.20000,
,,,-7.81239986420,0.20000,
,,,-7.81199979782,0.20000,
,,,-7.81159973145,0.20000,
,,,-7.81119966507,0.20000,
,,,-7.81079959869,0.20000,
,,,-7.81040000916,0.20000,
,,,-7.80999994278,0.20000,
,,,-7.80959987640,0.20000,
,,,-7.80919981003,0.20000,
,,,-7.80879974365,0.20000,
,,,-7.80839967728,0.20000,
,,,-7.80799961090,0.20000,
,,,-7.80760002136,0.20000,
,,,-7.80719995499,0.00,
,,,-7.80679988861,0.20000,
,,,-7.80639982224,0.20000,
,,,-7.80599975586,0.00,
,,,-7.80559968948,0.20000,
,,,-7.80519962311,0.00,
,,,-7.80480003357,0.20000,
,,,-7.80439996719,0.20000,
,,,-7.80399990082,0.20000,
,,,-7.80359983444,0.20000,
,,,-7.80319976807,0.20000,
,,,-7.80279970169,0.20000,
,,,-7.80239963531,0.20000,
,,,-7.80199956894,0.20000,
,,,-7.80159997940,0.20000,
,,,-7.80119991302,0.20000,
,,,-7.80079984665,0.20000,
,,,-7.80039978027,0.20000,
,,,-7.79999971390,0.00,
,,,-7.79959964752,0.00,
,,,-7.79919958115,0.00,
,,,-7.79879999161,0.20000,
,,,-7.79839992523,0.20000,
,,,-7.79799985886,0.20000,
,,,-7.79759979248,0.20000,
,,,-7.79719972610,0.20000,
,,,-7.79679965973,0.20000,
,,,-7.79639959335,0.20000,
,,,-7.79600000381,0.20000,
,,,-7.79559993744,0.20000,
,,,-7.79519987106,0.20000,
,,,-7.79479980469,0.20000,
,,,-7.79439973831,0.20000,
,,,-7.79399967194,0.20000,
,,,-7.79359960556,0.20000,
,,,-7.79320001602,0.20000,
,,,-7.79279994965,0.20000,
,,,-7.79239988327,0.20000,
,,,-7.79199981689,0.20000,
,,,-7.79159975052,0.00,
,,,-7.79119968414,0.00,
,,,-7.79079961777,0.00,
,,,-7.79040002823,0.00,
,,,-7.78999996185,0.00,
,,,-7.78959989548,0.00,
,,,-7.78919982910,0.00,
,,,-7.78879976273,0.00,
,,,-7.78839969635,0.00,
,,,-7.78799962997,0.00,
,,,-7.78760004044,0.00,
,,,-7.78719997406,0.00,
,,,-7.78679990768,0.20000,
,,,-7.78639984131,0.20000,
,,,-7.78599977493,0.20000,
,,,-7.78559970856,0.00,
,,,-7.78519964218,0.20000,
,,,-7.78479957581,0.00,
,,,-7.78439998627,0.00,
,,,-7.78399991989,0.00,
,,,-7.78359985352,-0.20000,
,,,-7.78319978714,-0.20000,
,,,-7.78279972076,0.00,
,,,-7.78239965439,0.00,
,,,-7.78199958801,0.00,
,,,-7.78159999847,0.00,
,,,-7.78119993210,-0.20000,
,,,-7.78079986572,0.00,
,,,-7.78039979935,0.00,
,,,-7.77999973297,0.20000,
,,,-7.77959966660,0.00,
,,,-7.77919960022,0.00,
,,,-7.77880001068,0.00,
,,,-7.77839994431,0.20000,
,,,-7.77799987793,0.00,
,,,-7.77759981155,0.00,
,,,-7.77719974518,0.00,
,,,-7.77679967880,0.00,
,,,-7.77639961243,0.00,
,,,-7.77600002289,0.20000,
,,,-7.77559995651,0.20000,
,,,-7.77519989014,0.20000,
,,,-7.77479982376,0.00,
,,,-7.77439975739,0.00,
,,,-7.77399969101,0.00,
,,,-7.77359962463,0.00,
,,,-7.77320003510,0.00,
,,,-7.77279996872,0.00,
,,,-7.77239990234,-0.20000,
,,,-7.77199983597,0.00,
,,,-7.77159976959,0.00,
,,,-7.77119970322,-0.20000,
,,,-7.77079963684,0.00,
,,,-7.77039957047,0.00,
,,,-7.76999998093,0.00,
,,,-7.76959991455,0.00,
,,,-7.76919984818,0.00,
,,,-7.76879978180,0.00,
,,,-7.76839971542,0.00,
,,,-7.76799964905,0.00,
,,,-7.76759958267,0.00,
,,,-7.76719999313,0.00,
,,,-7.76679992676,0.00,
,,,-7.76639986038,0.00,
,,,-7.76599979401,0.00,
,,,-7.76559972763,0.20000,
,,,-7.76519966125,0.00,
,,,-7.76479959488,0.20000,
,,,-7.76440000534,0.20000,
,,,-7.76399993896,0.20000,
,,,-7.76359987259,0.20000,
,,,-7.76319980621,0.20000,
,,,-7.76279973984,0.20000,
,,,-7.76239967346,0.20000,
,,,-7.76199960709,0.20000,
,,,-7.76160001755,0.20000,
,,,-7.76119995117,0.20000,
,,,-7.76079988480,0.20000,
,,,-7.76039981842,0.20000,
,,,-7.75999975204,0.20000,
,,,-7.75959968567,0.20000,
,,,-7.75919961929,0.20000,
,,,-7.75880002975,0.20000,
,,,-7.75839996338,0.20000,
,,,-7.75799989700,0.20000,
,,,-7.75759983063,0.20000,
,,,-7.75719976425,0.20000,
,,,-7.75679969788,0.00,
,,,-7.75639963150,0.20000,
,,,-7.75600004196,0.20000,
,,,-7.75559997559,0.20000,
,,,-7.75519990921,0.20000,
,,,-7.75479984283,0.20000,
,,,-7.75439977646,0.20000,
,,,-7.75399971008,0.20000,
,,,-7.75359964371,0.20000,
,,,-7.75319957733,0.20000,
,,,-7.75279998779,0.00,
,,,-7.75239992142,0.20000,
,,,-7.75199985504,0.20000,
,,,-7.75159978867,0.20000,
,,,-7.75119972229,0.20000,
,,,-7.75079965591,0.20000,
,,,-7.75039958954,0.20000,
,,,-7.75000000000,0.20000,
,,,-7.74959993362,0.20000,
,,,-7.74919986725,0.20000,
,,,-7.74879980087,0.20000,
,,,-7.74839973450,0.20000,
,,,-7.74799966812,0.20000,
,,,-7.74759960175,0.00,
,,,-7.74720001221,0.20000,
,,,-7.74679994583,0.00,
,,,-7.74639987946,0.20000,
,,,-7.74599981308,0.20000,
,,,-7.74559974670,0.20000,
,,,-7.74519968033,0.20000,
,,,-7.74479961395,0.20000,
,,,-7.74440002441,0.20000,
,,,-7.74399995804,0.40000,
,,,-7.74359989166,0.40000,
,,,-7.74319982529,0.40000,
,,,-7.74279975891,0.40000,
,,,-7.74239969254,0.60000,
,,,-7.74199962616,0.60000,
,,,-7.74160003662,0.80000,
,,,-7.74119997025,0.80000,
,,,-7.74079990387,0.80000,
,,,-7.74039983749,1.00000,
,,,-7.73999977112,1.00000,
,,,-7.73959970474,1.20000,
,,,-7.73919963837,1.20000,
,,,-7.73879957199,1.40000,
,,,-7.73839998245,1.40000,
,,,-7.73799991608,1.40000,
,,,-7.73759984970,1.40000,
,,,-7.73719978333,1.60000,
,,,-7.73679971695,1.80000,
,,,-7.73639965057,1.80000,
,,,-7.73599958420,2.00000,
,,,-7.73559999466,2.00000,
,,,-7.73519992828,2.00000,
,,,-7.73479986191,2.20000,
,,,-7.73439979553,2.20000,
,,,-7.73399972916,2.20000,
,,,-7.73359966278,2.40000,
,,,-7.73319959641,2.60000,
,,,-7.73280000687,2.40000,
,,,-7.73239994049,2.60000,
,,,-7.73199987411,2.60000,
,,,-7.73159980774,2.80000,
,,,-7.73119974136,2.80000,
,,,-7.73079967499,2.80000,
,,,-7.73039960861,3.00000,
,,,-7.73000001907,3.00000,
,,,-7.72959995270,3.20000,
,,,-7.72919988632,3.20000,
,,,-7.72879981995,3.40000,
,,,-7.72839975357,3.40000,
,,,-7.72799968719,3.40000,
,,,-7.72759962082,3.60000,
,,,-7.72720003128,3.60000,
,,,-7.72679996490,3.60000,
,,,-7.72639989853,3.60000,
,,,-7.72599983215,3.60000,
,,,-7.72559976578,3.60000,
,,,-7.72519969940,3.80000,
,,,-7.72479963303,4.00000,
,,,-7.72439956665,4.00000,
,,,-7.72399997711,4.00000,
,,,-7.72359991074,4.20000,
,,,-7.72319984436,4.20000,
,,,-7.72279977798,4.20000,
,,,-7.72239971161,4.20000,
,,,-7.72199964523,4.20000,
,,,-7.72159957886,4.20000,
,,,-7.72119998932,4.20000,
,,,-7.72079992294,4.20000,
,,,-7.72039985657,4.20000,
,,,-7.71999979019,4.20000,
,,,-7.71959972382,4.20000,
,,,-7.71919965744,4.20000,
,,,-7.71879959106,4.00000,
,,,-7.71840000153,4.00000,
,,,-7.71799993515,4.00000,
,,,-7.71759986877,4.00000,
,,,-7.71719980240,3.80000,
,,,-7.71679973602,3.80000,
,,,-7.71639966965,3.80000,
,,,-7.71599960327,3.80000,
,,,-7.71560001373,3.60000,
,,,-7.71519994736,3.60000,
,,,-7.71479988098,3.60000,
,,,-7.71439981461,3.60000,
,,,-7.71399974823,3.60000,
,,,-7.71359968185,3.60000,
,,,-7.71319961548,3.40000,
,,,-7.71280002594,3.40000,
,,,-7.71239995956,3.40000,
,,,-7.71199989319,3.20000,
,,,-7.71159982681,3.20000,
,,,-7.71119976044,3.00000,
,,,-7.71079969406,2.80000,
,,,-7.71039962769,2.80000,
,,,-7.71000003815,2.60000,
,,,-7.70959997177,2.60000,
,,,-7.70919990540,2.40000,
,,,-7.70879983902,2.20000,
,,,-7.70839977264,2.00000,
,,,-7.70799970627,2.00000,
,,,-7.70759963989,1.80000,
,,,-7.70719957352,1.80000,
,,,-7.70679998398,1.60000,
,,,-7.70639991760,1.60000,
,,,-7.70599985123,1.60000,
,,,-7.70559978485,1.40000,
,,,-7.70519971848,1.40000,
,,,-7.70479965210,1.20000,
,,,-7.70439958572,1.20000,
,,,-7.70399999619,1.20000,
,,,-7.70359992981,1.20000,
,,,-7.70319986343,1.00000,
,,,-7.70279979706,1.00000,
,,,-7.70239973068,1.00000,
,,,-7.70199966431,0.80000,
,,,-7.70159959793,0.80000,
,,,-7.70120000839,0.60000,
,,,-7.70079994202,0.60000,
,,,-7.70039987564,0.60000,
,,,-7.69999980927,0.40000,
,,,-7.69959974289,0.40000,
,,,-7.69919967651,0.40000,
,,,-7.69879961014,0.40000,
,,,-7.69840002060,0.20000,
,,,-7.69799995422,0.20000,
,,,-7.69759988785,0.20000,
,,,-7.69719982147,0.20000,
,,,-7.69679975510,0.20000,
,,,-7.69639968872,0.20000,
,,,-7.69599962234,0.20000,
,,,-7.69560003281,0.00,
,,,-7.69519996643,0.00,
,,,-7.69479990005,-0.20000,
,,,-7.69439983368,0.00,
,,,-7.69399976730,0.00,
,,,-7.69359970093,0.00,
,,,-7.69319963455,-0.20000,
,,,-7.69279956818,-0.20000,
,,,-7.69239997864,-0.20000,
,,,-7.69199991226,-0.20000,
,,,-7.69159984589,-0.40000,
,,,-7.69119977951,-0.40000,
,,,-7.69079971313,-0.40000,
,,,-7.69039964676,-0.40000,
,,,-7.68999958038,-0.40000,
,,,-7.68959999084,-0.40000,
,,,-7.68919992447,-0.40000,
,,,-7.68879985809,-0.40000,
,,,-7.68839979172,-0.40000,
,,,-7.68799972534,-0.40000,
,,,-7.68759965897,-0.40000,
,,,-7.68719959259,-0.40000,
,,,-7.68680000305,-0.40000,
,,,-7.68639993668,-0.40000,
,,,-7.68599987030,-0.40000,
,,,-7.68559980392,-0.40000,
,,,-7.68519973755,-0.40000,
,,,-7.68479967117,-0.40000,
,,,-7.68439960480,-0.40000,
,,,-7.68400001526,-0.40000,
,,,-7.68359994888,-0.40000,
,,,-7.68319988251,-0.40000,
,,,-7.68279981613,-0.40000,
,,,-7.68239974976,-0.40000,
,,,-7.68199968338,-0.40000,
,,,-7.68159961700,-0.40000,
,,,-7.68120002747,-0.40000,
,,,-7.68079996109,-0.40000,
,,,-7.68039989471,-0.40000,
,,,-7.67999982834,-0.40000,
,,,-7.67959976196,-0.40000,
,,,-7.67919969559,-0.40000,
,,,-7.67879962921,-0.40000,
,,,-7.67840003967,-0.40000,
,,,-7.67799997330,-0.40000,
,,,-7.67759990692,-0.40000,
,,,-7.67719984055,-0.40000,
,,,-7.67679977417,-0.40000,
,,,-7.67639970779,-0.40000,
,,,-7.67599964142,-0.40000,
,,,-7.67559957504,-0.40000,
,,,-7.67519998550,-0.40000,
,,,-7.67479991913,-0.40000,
,,,-7.67439985275,-0.40000,
,,,-7.67399978638,-0.40000,
,,,-7.67359972000,-0.40000,
,,,-7.67319965363,-0.40000,
,,,-7.67279958725,-0.40000,
,,,-7.67239999771,-0.40000,
,,,-7.67199993134,-0.60000,
,,,-7.67159986496,-0.60000,
,,,-7.67119979858,-0.40000,
,,,-7.67079973221,-0.60000,
,,,-7.67039966583,-0.60000,
,,,-7.66999959946,-0.60000,
,,,-7.66960000992,-0.60000,
,,,-7.66919994354,-0.60000,
,,,-7.66879987717,-0.40000,
,,,-7.66839981079,-0.60000,
,,,-7.66799974442,-0.40000,
,,,-7.66759967804,-0.60000,
,,,-7.66719961166,-0.40000,
,,,-7.66680002213,-0.60000,
,,,-7.66639995575,-0.60000,
,,,-7.66599988937,-0.60000,
,,,-7.66559982300,-0.60000,
,,,-7.66519975662,-0.60000,
,,,-7.66479969025,-0.60000,
,,,-7.66439962387,-0.40000,
,,,-7.66400003433,-0.40000,
,,,-7.66359996796,-0.60000,
,,,-7.66319990158,-0.60000,
,,,-7.66279983521,-0.60000,
,,,-7.66239976883,-0.40000,
,,,-7.66199970245,-0.60000,
,,,-7.66159963608,-0.60000,
,,,-7.66119956970,-0.40000,
,,,-7.66079998016,-0.60000,
,,,-7.66039991379,-0.60000,
,,,-7.65999984741,-0.40000,
,,,-7.65959978104,-0.60000,
,,,-7.65919971466,-0.60000,
,,,-7.65879964828,-0.40000,
,,,-7.65839958191,-0.40000,
,,,-7.65799999237,-0.60000,
,,,-7.65759992599,-0.60000,
,,,-7.65719985962,-0.40000,
,,,-7.65679979324,-0.60000,
,,,-7.65639972687,-0.40000,
,,,-7.65599966049,-0.40000,
,,,-7.65559959412,-0.40000,
,,,-7.65520000458,-0.40000,
,,,-7.65479993820,-0.40000,
,,,-7.65439987183,-0.40000,
,,,-7.65399980545,-0.40000,
,,,-7.65359973907,-0.40000,
,,,-7.65319967270,-0.40000,
,,,-7.65279960632,-0.40000,
,,,-7.65240001678,-0.40000,
,,,-7.65199995041,-0.40000,
,,,-7.65159988403,-0.40000,
,,,-7.65119981766,-0.60000,
,,,-7.65079975128,-0.60000,
,,,-7.65039968491,-0.40000,
,,,-7.64999961853,-0.60000,
,,,-7.64960002899,-0.40000,
,,,-7.64919996262,-0.40000,
,,,-7.64879989624,-0.40000,
,,,-7.64839982986,-0.40000,
,,,-7.64799976349,-0.40000,
,,,-7.64759969711,-0.40000,
,,,-7.64719963074,-0.40000,
,,,-7.64680004120,-0.40000,
,,,-7.64639997482,-0.40000,
,,,-7.64599990845,-0.40000,
,,,-7.64559984207,-0.40000,
,,,-7.64519977570,-0.40000,
,,,-7.64479970932,-0.40000,
,,,-7.64439964294,-0.40000,
,,,-7.64399957657,-0.40000,
,,,-7.64359998703,-0.40000,
,,,-7.64319992065,-0.40000,
,,,-7.64279985428,-0.40000,
,,,-7.64239978790,-0.40000,
,,,-7.64199972153,-0.40000,
,,,-7.64159965515,-0.40000,
,,,-7.64119958878,-0.40000,
,,,-7.64079999924,-0.40000,
,,,-7.64039993286,-0.40000,
,,,-7.63999986649,-0.40000,
,,,-7.63959980011,-0.40000,
,,,-7.63919973373,-0.40000,
,,,-7.63879966736,-0.40000,
,,,-7.63839960098,-0.40000,
,,,-7.63800001144,-0.40000,
,,,-7.63759994507,-0.40000,
,,,-7.63719987869,-0.20000,
,,,-7.63679981232,-0.40000,
,,,-7.63639974594,-0.40000,
,,,-7.63599967957,-0.40000,
,,,-7.63559961319,-0.40000,
,,,-7.63520002365,-0.40000,
,,,-7.63479995728,-0.40000,
,,,-7.63439989090,-0.40000,
,,,-7.63399982452,-0.40000,
,,,-7.63359975815,-0.40000,
,,,-7.63319969177,-0.40000,
,,,-7.63279962540,-0.20000,
,,,-7.63240003586,-0.40000,
,,,-7.63199996948,-0.40000,
,,,-7.63159990311,-0.40000,
,,,-7.63119983673,-0.20000,
,,,-7.63079977036,-0.40000,
,,,-7.63039970398,-0.40000,
,,,-7.62999963760,-0.40000,
,,,-7.62959957123,-0.40000,
,,,-7.62919998169,-0.40000,
,,,-7.62879991531,-0.40000,
,,,-7.62839984894,-0.40000,
,,,-7.62799978256,-0.40000,
,,,-7.62759971619,-0.40000,
,,,-7.62719964981,-0.40000,
,,,-7.62679958344,-0.40000,
,,,-7.62639999390,-0.20000,
,,,-7.62599992752,-0.40000,
,,,-7.62559986115,-0.20000,
,,,-7.62519979477,-0.20000,
,,,-7.62479972839,-0.40000,
,,,-7.62439966202,-0.20000,
,,,-7.62399959564,-0.40000,
,,,-7.62360000610,-0.40000,
,,,-7.62319993973,-0.40000,
,,,-7.62279987335,-0.40000,
,,,-7.62239980698,-0.40000,
,,,-7.62199974060,-0.40000,
,,,-7.62159967422,-0.40000,
,,,-7.62119960785,-0.40000,
,,,-7.62080001831,-0.40000,
,,,-7.62039995193,-0.40000,
,,,-7.61999988556,-0.20000,
,,,-7.61959981918,-0.40000,
,,,-7.61919975281,-0.40000,
,,,-7.61879968643,-0.20000,
,,,-7.61839962006,-0.20000,
,,,-7.61800003052,-0.20000,
,,,-7.61759996414,-0.20000,
,,,-7.61719989777,-0.20000,
,,,-7.61679983139,0.00,
,,,-7.61639976501,-0.40000,
,,,-7.61599969864,-0.40000,
,,,-7.61559963226,-0.20000,
,,,-7.61520004272,-0.20000,
,,,-7.61479997635,-0.20000,
,,,-7.61439990997,-0.20000,
,,,-7.61399984360,-0.20000,
,,,-7.61359977722,-0.40000,
,,,-7.61319971085,-0.20000,
,,,-7.61279964447,-0.40000,
,,,-7.61239957809,-0.20000,
,,,-7.61199998856,-0.20000,
,,,-7.61159992218,-0.20000,
,,,-7.61119985580,0.00,
,,,-7.61079978943,-0.20000,
,,,-7.61039972305,-0.40000,
,,,-7.60999965668,0.00,
,,,-7.60959959030,0.00,
,,,-7.60920000076,-0.40000,
,,,-7.60879993439,-0.20000,
,,,-7.60839986801,-0.20000,
,,,-7.60799980164,-0.20000,
,,,-7.60759973526,0.00,
,,,-7.60719966888,0.00,
,,,-7.60679960251,-0.20000,
,,,-7.60640001297,-0.20000,
,,,-7.60599994659,-0.20000,
,,,-7.60559988022,-0.20000,
,,,-7.60519981384,-0.20000,
,,,-7.60479974747,0.00,
,,,-7.60439968109,0.00,
,,,-7.60399961472,0.00,
,,,-7.60360002518,-0.20000,
,,,-7.60319995880,-0.20000,
,,,-7.60279989243,-0.20000,
,,,-7.60239982605,-0.20000,
,,,-7.60199975967,0.00,
,,,-7.60159969330,0.00,
,,,-7.60119962692,0.00,
,,,-7.60080003738,0.00,
,,,-7.60039997101,0.00,
,,,-7.59999990463,0.00,
,,,-7.59959983826,0.00,
,,,-7.59919977188,0.00,
,,,-7.59879970551,0.00,
,,,-7.59839963913,0.00,
,,,-7.59799957275,-0.20000,
,,,-7.59759998322,0.00,
,,,-7.59719991684,0.00,
,,,-7.59679985046,-0.20000,
,,,-7.59639978409,0.00,
,,,-7.59599971771,-0.20000,
,,,-7.59559965134,0.00,
,,,-7.59519958496,0.00,
,,,-7.59479999542,-0.20000,
,,,-7.59439992905,-0.20000,
,,,-7.59399986267,-0.20000,
,,,-7.59359979630,-0.20000,
,,,-7.59319972992,0.00,
,,,-7.59279966354,-0.20000,
,,,-7.59239959717,-0.20000,
,,,-7.59200000763,0.00,
,,,-7.59159994125,0.00,
,,,-7.59119987488,0.00,
,,,-7.59079980850,0.20000,
,,,-7.59039974213,0.00,
,,,-7.58999967575,0.00,
,,,-7.58959960938,0.00,
,,,-7.58920001984,0.00,
,,,-7.58879995346,-0.20000,
,,,-7.58839988708,-0.20000,
,,,-7.58799982071,-0.20000,
,,,-7.58759975433,-0.40000,
,,,-7.58719968796,0.00,
,,,-7.58679962158,-0.20000,
,,,-7.58640003204,-0.20000,
,,,-7.58599996567,-0.20000,
,,,-7.58559989929,0.00,
,,,-7.58519983292,0.00,
,,,-7.58479976654,0.00,
,,,-7.58439970016,0.00,
,,,-7.58399963379,0.00,
,,,-7.58360004425,0.00,
,,,-7.58319997787,0.20000,
,,,-7.58279991150,0.00,
,,,-7.58239984512,0.00,
,,,-7.58199977875,0.00,
,,,-7.58159971237,0.00,
,,,-7.58119964600,-0.20000,
,,,-7.58079957962,-0.20000,
,,,-7.58039999008,0.00,
,,,-7.57999992371,0.00,
,,,-7.57959985733,0.00,
,,,-7.57919979095,0.20000,
,,,-7.57879972458,0.00,
,,,-7.57839965820,0.20000,
,,,-7.57799959183,0.20000,
,,,-7.57760000229,0.20000,
,,,-7.57719993591,0.20000,
,,,-7.57679986954,0.20000,
,,,-7.57639980316,0.20000,
,,,-7.57599973679,0.20000,
,,,-7.57559967041,0.20000,
,,,-7.57519960403,0.20000,
,,,-7.57480001450,0.20000,
,,,-7.57439994812,0.20000,
,,,-7.57399988174,0.20000,
,,,-7.57359981537,0.20000,
,,,-7.57319974899,0.20000,
,,,-7.57279968262,0.20000,
,,,-7.57239961624,0.20000,
,,,-7.57200002670,0.20000,
,,,-7.57159996033,0.00,
,,,-7.57119989395,0.00,
,,,-7.57079982758,0.00,
,,,-7.57039976120,0.20000,
,,,-7.56999969482,0.20000,
,,,-7.56959962845,0.20000,
,,,-7.56920003891,0.20000,
,,,-7.56879997253,0.20000,
,,,-7.56839990616,0.20000,
,,,-7.56799983978,0.20000,
,,,-7.56759977341,0.20000,
,,,-7.56719970703,0.20000,
,,,-7.56679964066,0.20000,
