Kahve içmeden önce data/ND.CSV

Record Length,45000,,Source,CH1
Sample Interval,CH1:0.0004000000000,,Second,Volt
Vertical Units,CH1:V,,-9.00000000000,0.40000,
Vertical Scale,CH1:5.00,,-8.99959900000,0.40000,
Vertical Offset,CH1:0.80000,,-8.99920000000,0.20000,
Horizontal Units,s,,-8.99879900000,0.20000,
Horizontal Scale,1.0000000000,,-8.99840000000,0.40000,
Model Number,ADS-3072B,,-8.99800000000,0.40000,
Serial Number,NEU100P2150638,,-8.99760000000,0.40000,
Software Version,5.01.02.29,,-8.99720000000,0.20000,
,,,-8.99679900000,0.20000,
,,,-8.99640000000,0.20000,
,,,-8.99599900000,0.20000,
,,,-8.99560000000,0.20000,
,,,-8.99520000000,0.20000,
,,,-8.99480000000,0.20000,
,,,-8.99440000000,0.20000,
,,,-8.99399900000,0.40000,
,,,-8.99360000000,0.20000,
,,,-8.99319900000,0.20000,
,,,-8.99280000000,0.20000,
,,,-8.99240000000,0.20000,
,,,-8.99200000000,0.20000,
,,,-8.99160000000,0.20000,
,,,-8.99119900000,0.20000,
,,,-8.99080000000,0.20000,
,,,-8.99039900000,0.20000,
,,,-8.99000000000,0.20000,
,,,-8.98960000000,0.40000,
,,,-8.98920000000,0.20000,
,,,-8.98880000000,0.20000,
,,,-8.98840000000,0.40000,
,,,-8.98800000000,0.20000,
,,,-8.98759900000,0.20000,
,,,-8.98720000000,0.40000,
,,,-8.98680000000,0.40000,
,,,-8.98640000000,0.20000,
,,,-8.98600000000,0.40000,
,,,-8.98560000000,0.40000,
,,,-8.98520000000,0.40000,
,,,-8.98479900000,0.40000,
,,,-8.98440000000,0.40000,
,,,-8.98400000000,0.40000,
,,,-8.98360000000,0.40000,
,,,-8.98320000000,0.40000,
,,,-8.98280000000,0.40000,
,,,-8.98240000000,0.40000,
,,,-8.98199900000,0.40000,
,,,-8.98160000000,0.40000,
,,,-8.98120000000,0.40000,
,,,-8.98080000000,0.40000,
,,,-8.98040000000,0.20000,
,,,-8.98000000000,0.20000,
,,,-8.97960000000,0.40000,
,,,-8.97919900000,0.20000,
,,,-8.97880000000,0.40000,
,,,-8.97840000000,0.20000,
,,,-8.97800000000,0.20000,
,,,-8.97760000000,0.20000,
,,,-8.97720000000,0.20000,
,,,-8.97680000000,0.20000,
,,,-8.97639900000,0.00,
,,,-8.97600000000,0.20000,
,,,-8.97560000000,0.20000,
,,,-8.97520000000,0.20000,
,,,-8.97480000000,0.20000,
,,,-8.97440000000,0.20000,
,,,-8.97400000000,0.20000,
,,,-8.97359900000,0.20000,
,,,-8.97320000000,0.20000,
,,,-8.97279900000,0.20000,
,,,-8.97240000000,0.20000,
,,,-8.97200000000,0.20000,
,,,-8.97160000000,0.20000,
,,,-8.97120000000,0.20000,
,,,-8.97079900000,0.20000,
,,,-8.97040000000,0.20000,
,,,-8.96999900000,0.20000,
,,,-8.96960000000,0.20000,
,,,-8.96920000000,0.20000,
,,,-8.96880000000,0.20000,
,,,-8.96840000000,0.40000,
,,,-8.96799900000,0.20000,
,,,-8.96760000000,0.40000,
,,,-8.96719900000,0.40000,
,,,-8.96680000000,0.40000,
,,,-8.96640000000,0.20000,
,,,-8.96600000000,0.20000,
,,,-8.96560000000,0.40000,
,,,-8.96519900000,0.20000,
,,,-8.96480000000,0.40000,
,,,-8.96439900000,0.20000,
,,,-8.96400000000,0.40000,
,,,-8.96360000000,0.40000,
,,,-8.96320000000,0.40000,
,,,-8.96280000000,0.40000,
,,,-8.96239900000,0.40000,
,,,-8.96200000000,0.40000,
,,,-8.96159900000,0.40000,
,,,-8.96120000000,0.40000,
,,,-8.96080000000,0.20000,
,,,-8.96040000000,0.40000,
,,,-8.96000000000,0.40000,
,,,-8.95959900000,0.40000,
,,,-8.95920000000,0.40000,
,,,-8.95879900000,0.40000,
,,,-8.95840000000,0.40000,
,,,-8.95800000000,0.40000,
,,,-8.95760000000,0.40000,
,,,-8.95720000000,0.40000,
,,,-8.95680000000,0.20000,
,,,-8.95640000000,0.40000,
,,,-8.95599900000,0.40000,
,,,-8.95560000000,0.40000,
,,,-8.95520000000,0.20000,
,,,-8.95480000000,0.40000,
,,,-8.95440000000,0.20000,
,,,-8.95400000000,0.20000,
,,,-8.95360000000,0.20000,
,,,-8.95319900000,0.40000,
,,,-8.95280000000,0.40000,
,,,-8.95240000000,0.40000,
,,,-8.95200000000,0.40000,
,,,-8.95160000000,0.20000,
,,,-8.95120000000,0.40000,
,,,-8.95080000000,0.40000,
,,,-8.95039900000,0.40000,
,,,-8.95000000000,0.40000,
,,,-8.94960000000,0.40000,
,,,-8.94920000000,0.40000,
,,,-8.94880000000,0.40000,
,,,-8.94840000000,0.40000,
,,,-8.94800000000,0.40000,
,,,-8.94759900000,0.40000,
,,,-8.94720000000,0.40000,
,,,-8.94680000000,0.40000,
,,,-8.94640000000,0.40000,
,,,-8.94600000000,0.40000,
,,,-8.94560000000,0.40000,
,,,-8.94520000000,0.40000,
,,,-8.94479900000,0.40000,
,,,-8.94440000000,0.40000,
,,,-8.94400000000,0.60000,
,,,-8.94360000000,0.60000,
,,,-8.94320000000,0.60000,
,,,-8.94280000000,0.60000,
,,,-8.94240000000,0.60000,
,,,-8.94199900000,0.60000,
,,,-8.94160000000,0.60000,
,,,-8.94119900000,0.40000,
,,,-8.94080000000,0.60000,
,,,-8.94040000000,0.60000,
,,,-8.94000000000,0.60000,
,,,-8.93960000000,0.60000,
,,,-8.93919900000,0.40000,
,,,-8.93880000000,0.40000,
,,,-8.93839900000,0.40000,
,,,-8.93800000000,0.60000,
,,,-8.93760000000,0.60000,
,,,-8.93720000000,0.40000,
,,,-8.93680000000,0.40000,
,,,-8.93639900000,0.40000,
,,,-8.93600000000,0.40000,
,,,-8.93559900000,0.40000,
,,,-8.93520000000,0.40000,
,,,-8.93480000000,0.40000,
,,,-8.93440000000,0.40000,
,,,-8.93400000000,0.40000,
,,,-8.93359900000,0.40000,
,,,-8.93320000000,0.40000,
,,,-8.93279900000,0.40000,
,,,-8.93240000000,0.60000,
,,,-8.93200000000,0.40000,
,,,-8.93160000000,0.40000,
,,,-8.93120000000,0.40000,
,,,-8.93079900000,0.40000,
,,,-8.93040000000,0.40000,
,,,-8.92999900000,0.60000,
,,,-8.92960000000,0.40000,
,,,-8.92920000000,0.60000,
,,,-8.92880000000,0.60000,
,,,-8.92840000000,0.60000,
,,,-8.92799900000,0.60000,
,,,-8.92760000000,0.60000,
,,,-8.92719900000,0.80000,
,,,-8.92680000000,0.80000,
,,,-8.92640000000,0.60000,
,,,-8.92600000000,0.60000,
,,,-8.92560000000,0.80000,
,,,-8.92520000000,0.80000,
,,,-8.92480000000,0.60000,
,,,-8.92439900000,0.80000,
,,,-8.92400000000,0.60000,
,,,-8.92360000000,0.80000,
,,,-8.92320000000,0.80000,
,,,-8.92280000000,0.80000,
,,,-8.92240000000,0.80000,
,,,-8.92200000000,0.80000,
,,,-8.92159900000,0.80000,
,,,-8.92120000000,0.60000,
,,,-8.92080000000,0.80000,
,,,-8.92040000000,0.80000,
,,,-8.92000000000,0.60000,
,,,-8.91960000000,0.60000,
,,,-8.91920000000,0.60000,
,,,-8.91879900000,0.60000,
,,,-8.91840000000,0.60000,
,,,-8.91800000000,0.60000,
,,,-8.91760000000,0.40000,
,,,-8.91720000000,0.60000,
,,,-8.91680000000,0.60000,
,,,-8.91640000000,0.40000,
,,,-8.91599900000,0.60000,
,,,-8.91560000000,0.40000,
,,,-8.91520000000,0.40000,
,,,-8.91480000000,0.40000,
,,,-8.91440000000,0.40000,
,,,-8.91400000000,0.40000,
,,,-8.91360000000,0.60000,
,,,-8.91319900000,0.40000,
,,,-8.91280000000,0.40000,
,,,-8.91240000000,0.40000,
,,,-8.91200000000,0.40000,
,,,-8.91160000000,0.40000,
,,,-8.91120000000,0.40000,
,,,-8.91080000000,0.40000,
,,,-8.91039900000,0.40000,
,,,-8.91000000000,0.40000,
,,,-8.90959900000,0.40000,
,,,-8.90920000000,0.60000,
,,,-8.90880000000,0.40000,
,,,-8.90840000000,0.60000,
,,,-8.90800000000,0.40000,
,,,-8.90759900000,0.40000,
,,,-8.90720000000,0.60000,
,,,-8.90679900000,0.40000,
,,,-8.90640000000,0.40000,
,,,-8.90600000000,0.60000,
,,,-8.90560000000,0.40000,
,,,-8.90520000000,0.40000,
,,,-8.90479900000,0.40000,
,,,-8.90440000000,0.40000,
,,,-8.90399900000,0.40000,
,,,-8.90360000000,0.40000,
,,,-8.90320000000,0.40000,
,,,-8.90280000000,0.40000,
,,,-8.90240000000,0.60000,
,,,-8.90199900000,0.40000,
,,,-8.90160000000,0.40000,
,,,-8.90119900000,0.40000,
,,,-8.90080000000,0.40000,
,,,-8.90040000000,0.40000,
,,,-8.90000000000,0.40000,
,,,-8.89960000000,0.40000,
,,,-8.89919900000,0.40000,
,,,-8.89880000000,0.40000,
,,,-8.89839900000,0.40000,
,,,-8.89800000000,0.40000,
,,,-8.89760000000,0.40000,
,,,-8.89720000000,0.40000,
,,,-8.89680000000,0.40000,
,,,-8.89639900000,0.40000,
,,,-8.89600000000,0.20000,
,,,-8.89559900000,0.20000,
,,,-8.89520000000,0.40000,
,,,-8.89480000000,0.20000,
,,,-8.89440000000,0.20000,
,,,-8.89400000000,0.40000,
,,,-8.89360000000,0.20000,
,,,-8.89320000000,0.20000,
,,,-8.89279900000,0.20000,
,,,-8.89240000000,0.20000,
,,,-8.89200000000,0.20000,
,,,-8.89160000000,0.20000,
,,,-8.89120000000,0.40000,
,,,-8.89080000000,0.20000,
,,,-8.89040000000,0.40000,
,,,-8.88999900000,0.20000,
,,,-8.88960000000,0.20000,
,,,-8.88920000000,0.20000,
,,,-8.88880000000,0.20000,
,,,-8.88840000000,0.20000,
,,,-8.88800000000,0.20000,
,,,-8.88760000000,0.20000,
,,,-8.88719900000,0.20000,
,,,-8.88680000000,0.40000,
,,,-8.88640000000,0.20000,
,,,-8.88600000000,0.20000,
,,,-8.88560000000,0.20000,
,,,-8.88520000000,0.20000,
,,,-8.88480000000,0.20000,
,,,-8.88439900000,0.20000,
,,,-8.88400000000,0.20000,
,,,-8.88360000000,0.20000,
,,,-8.88320000000,0.20000,
,,,-8.88280000000,0.20000,
,,,-8.88240000000,0.20000,
,,,-8.88200000000,0.20000,
,,,-8.88159900000,0.20000,
,,,-8.88120000000,0.00,
,,,-8.88080000000,0.20000,
,,,-8.88040000000,0.00,
,,,-8.88000000000,-0.20000,
,,,-8.87960000000,0.00,
,,,-8.87920000000,-0.20000,
,,,-8.87879900000,-0.20000,
,,,-8.87840000000,-0.20000,
,,,-8.87799900000,-0.20000,
,,,-8.87760000000,-0.20000,
,,,-8.87720000000,-0.20000,
,,,-8.87680000000,-0.20000,
,,,-8.87640000000,-0.20000,
,,,-8.87599900000,-0.20000,
,,,-8.87560000000,-0.20000,
,,,-8.87519900000,-0.20000,
,,,-8.87480000000,-0.20000,
,,,-8.87440000000,-0.20000,
,,,-8.87400000000,-0.20000,
,,,-8.87360000000,-0.40000,
,,,-8.87319900000,-0.20000,
,,,-8.87280000000,-0.40000,
,,,-8.87239900000,-0.20000,
,,,-8.87200000000,-0.40000,
,,,-8.87160000000,-0.40000,
,,,-8.87120000000,-0.40000,
,,,-8.87080000000,-0.40000,
,,,-8.87039900000,-0.40000,
,,,-8.87000000000,-0.20000,
,,,-8.86959900000,-0.40000,
,,,-8.86920000000,-0.40000,
,,,-8.86880000000,-0.40000,
,,,-8.86840000000,-0.40000,
,,,-8.86800000000,-0.20000,
,,,-8.86759900000,-0.20000,
,,,-8.86720000000,-0.20000,
,,,-8.86679900000,-0.20000,
,,,-8.86640000000,-0.20000,
,,,-8.86600000000,-0.20000,
,,,-8.86560000000,-0.20000,
,,,-8.86520000000,-0.20000,
,,,-8.86479900000,-0.20000,
,,,-8.86440000000,-0.20000,
,,,-8.86399900000,-0.40000,
,,,-8.86360000000,-0.20000,
,,,-8.86320000000,-0.40000,
,,,-8.86280000000,-0.40000,
,,,-8.86240000000,-0.20000,
,,,-8.86200000000,-0.20000,
,,,-8.86160000000,-0.20000,
,,,-8.86119900000,-0.20000,
,,,-8.86080000000,-0.20000,
,,,-8.86040000000,-0.20000,
,,,-8.86000000000,-0.20000,
,,,-8.85960000000,-0.40000,
,,,-8.85920000000,-0.40000,
,,,-8.85880000000,-0.40000,
,,,-8.85839900000,-0.40000,
,,,-8.85800000000,-0.40000,
,,,-8.85760000000,-0.40000,
,,,-8.85720000000,-0.40000,
,,,-8.85680000000,-0.40000,
,,,-8.85640000000,-0.60000,
,,,-8.85600000000,-0.40000,
,,,-8.85559900000,-0.40000,
,,,-8.85520000000,-0.60000,
,,,-8.85480000000,-0.60000,
,,,-8.85440000000,-0.40000,
,,,-8.85400000000,-0.60000,
,,,-8.85360000000,-0.60000,
,,,-8.85320000000,-0.60000,
,,,-8.85279900000,-0.60000,
,,,-8.85240000000,-0.60000,
,,,-8.85200000000,-0.40000,
,,,-8.85160000000,-0.40000,
,,,-8.85120000000,-0.60000,
,,,-8.85080000000,-0.60000,
,,,-8.85040000000,-0.60000,
,,,-8.84999900000,-0.40000,
,,,-8.84960000000,-0.60000,
,,,-8.84920000000,-0.60000,
,,,-8.84880000000,-0.40000,
,,,-8.84840000000,-0.40000,
,,,-8.84800000000,-0.40000,
,,,-8.84760000000,-0.40000,
,,,-8.84719900000,-0.40000,
,,,-8.84680000000,-0.40000,
,,,-8.84639900000,-0.40000,
,,,-8.84600000000,-0.40000,
,,,-8.84560000000,-0.20000,
,,,-8.84520000000,-0.40000,
,,,-8.84480000000,-0.40000,
,,,-8.84439900000,-0.40000,
,,,-8.84400000000,-0.20000,
,,,-8.84359900000,-0.20000,
,,,-8.84320000000,-0.40000,
,,,-8.84280000000,-0.40000,
,,,-8.84240000000,-0.20000,
,,,-8.84200000000,-0.20000,
,,,-8.84159900000,-0.20000,
,,,-8.84120000000,-0.40000,
,,,-8.84079900000,-0.40000,
,,,-8.84040000000,-0.40000,
,,,-8.84000000000,-0.40000,
,,,-8.83960000000,-0.20000,
,,,-8.83920000000,-0.40000,
,,,-8.83879900000,-0.40000,
,,,-8.83840000000,-0.40000,
,,,-8.83799900000,-0.40000,
,,,-8.83760000000,-0.40000,
,,,-8.83720000000,-0.60000,
,,,-8.83680000000,-0.60000,
,,,-8.83640000000,-0.60000,
,,,-8.83599900000,-0.40000,
,,,-8.83560000000,-0.40000,
,,,-8.83519900000,-0.60000,
,,,-8.83480000000,-0.60000,
,,,-8.83440000000,-0.40000,
,,,-8.83400000000,-0.60000,
,,,-8.83360000000,-0.60000,
,,,-8.83320000000,-0.60000,
,,,-8.83280000000,-0.40000,
,,,-8.83239900000,-0.40000,
,,,-8.83200000000,-0.60000,
,,,-8.83160000000,-0.40000,
,,,-8.83120000000,-0.40000,
,,,-8.83080000000,-0.60000,
,,,-8.83040000000,-0.40000,
,,,-8.83000000000,-0.40000,
,,,-8.82959900000,-0.40000,
,,,-8.82920000000,-0.40000,
,,,-8.82880000000,-0.40000,
,,,-8.82840000000,-0.60000,
,,,-8.82800000000,-0.40000,
,,,-8.82760000000,-0.40000,
,,,-8.82720000000,-0.40000,
,,,-8.82679900000,-0.40000,
,,,-8.82640000000,-0.40000,
,,,-8.82600000000,-0.40000,
,,,-8.82560000000,-0.20000,
,,,-8.82520000000,-0.40000,
,,,-8.82480000000,-0.20000,
,,,-8.82440000000,-0.20000,
,,,-8.82399900000,-0.20000,
,,,-8.82360000000,-0.20000,
,,,-8.82320000000,-0.20000,
,,,-8.82280000000,-0.20000,
,,,-8.82240000000,-0.20000,
,,,-8.82200000000,-0.40000,
,,,-8.82160000000,-0.40000,
,,,-8.82119900000,-0.40000,
,,,-8.82080000000,-0.20000,
,,,-8.82040000000,-0.40000,
,,,-8.82000000000,-0.20000,
,,,-8.81960000000,-0.40000,
,,,-8.81920000000,-0.40000,
,,,-8.81880000000,-0.40000,
,,,-8.81839900000,-0.40000,
,,,-8.81800000000,-0.60000,
,,,-8.81760000000,-0.40000,
,,,-8.81720000000,-0.60000,
,,,-8.81680000000,-0.40000,
,,,-8.81640000000,-0.40000,
,,,-8.81600000000,-0.40000,
,,,-8.81559900000,-0.40000,
,,,-8.81520000000,-0.40000,
,,,-8.81479900000,-0.40000,
,,,-8.81440000000,-0.40000,
,,,-8.81400000000,-0.40000,
,,,-8.81360000000,-0.60000,
,,,-8.81320000000,-0.40000,
,,,-8.81279900000,-0.40000,
,,,-8.81240000000,-0.40000,
,,,-8.81199900000,-0.60000,
,,,-8.81160000000,-0.40000,
,,,-8.81120000000,-0.40000,
,,,-8.81080000000,-0.40000,
,,,-8.81040000000,-0.40000,
,,,-8.80999900000,-0.40000,
,,,-8.80960000000,-0.20000,
,,,-8.80919900000,-0.40000,
,,,-8.80880000000,-0.40000,
,,,-8.80840000000,-0.40000,
,,,-8.80800000000,-0.40000,
,,,-8.80760000000,-0.20000,
,,,-8.80719900000,-0.40000,
,,,-8.80680000000,-0.40000,
,,,-8.80639900000,-0.20000,
,,,-8.80600000000,-0.20000,
,,,-8.80560000000,-0.40000,
,,,-8.80520000000,-0.20000,
,,,-8.80480000000,-0.40000,
,,,-8.80439900000,-0.20000,
,,,-8.80400000000,-0.20000,
,,,-8.80359900000,-0.20000,
,,,-8.80320000000,-0.20000,
,,,-8.80280000000,-0.20000,
,,,-8.80240000000,-0.20000,
,,,-8.80200000000,-0.20000,
,,,-8.80160000000,-0.20000,
,,,-8.80120000000,-0.20000,
,,,-8.80079900000,-0.20000,
,,,-8.80040000000,-0.40000,
,,,-8.80000000000,-0.40000,
,,,-8.79960000000,-0.40000,
,,,-8.79920000000,-0.40000,
,,,-8.79880000000,-0.60000,
,,,-8.79840000000,-0.60000,
,,,-8.79799900000,-0.40000,
,,,-8.79760000000,-0.40000,
,,,-8.79720000000,-0.60000,
,,,-8.79680000000,-0.60000,
,,,-8.79640000000,-0.40000,
,,,-8.79600000000,-0.60000,
,,,-8.79560000000,-0.60000,
,,,-8.79519900000,-0.60000,
,,,-8.79480000000,-0.60000,
,,,-8.79440000000,-0.60000,
,,,-8.79400000000,-0.60000,
,,,-8.79360000000,-0.60000,
,,,-8.79320000000,-0.60000,
,,,-8.79280000000,-0.60000,
,,,-8.79239900000,-0.60000,
,,,-8.79200000000,-0.60000,
,,,-8.79160000000,-0.60000,
,,,-8.79120000000,-0.60000,
,,,-8.79080000000,-0.60000,
,,,-8.79040000000,-0.60000,
,,,-8.79000000000,-0.40000,
,,,-8.78959900000,-0.60000,
,,,-8.78920000000,-0.60000,
,,,-8.78880000000,-0.60000,
,,,-8.78840000000,-0.40000,
,,,-8.78800000000,-0.40000,
,,,-8.78760000000,-0.40000,
,,,-8.78720000000,-0.20000,
,,,-8.78679900000,-0.20000,
,,,-8.78640000000,-0.20000,
,,,-8.78600000000,-0.20000,
,,,-8.78560000000,-0.20000,
,,,-8.78520000000,0.00,
,,,-8.78480000000,-0.20000,
,,,-8.78440000000,0.00,
,,,-8.78399900000,0.20000,
,,,-8.78360000000,0.20000,
,,,-8.78319900000,0.20000,
,,,-8.78280000000,0.20000,
,,,-8.78240000000,0.40000,
,,,-8.78200000000,0.40000,
,,,-8.78160000000,0.40000,
,,,-8.78119900000,0.40000,
,,,-8.78080000000,0.40000,
,,,-8.78039900000,0.60000,
,,,-8.78000000000,0.60000,
,,,-8.77960000000,0.80000,
,,,-8.77920000000,0.80000,
,,,-8.77880000000,0.80000,
,,,-8.77839900000,0.80000,
,,,-8.77800000000,0.80000,
,,,-8.77759900000,1.00000,
,,,-8.77720000000,1.00000,
,,,-8.77680000000,1.20000,
,,,-8.77640000000,1.20000,
,,,-8.77600000000,1.20000,
,,,-8.77559900000,1.60000,
,,,-8.77520000000,1.60000,
,,,-8.77479900000,1.60000,
,,,-8.77440000000,1.80000,
,,,-8.77400000000,1.80000,
,,,-8.77360000000,2.00000,
,,,-8.77320000000,2.00000,
,,,-8.77279900000,2.20000,
,,,-8.77240000000,2.40000,
,,,-8.77199900000,2.40000,
,,,-8.77160000000,2.40000,
,,,-8.77120000000,2.60000,
,,,-8.77080000000,2.60000,
,,,-8.77040000000,2.80000,
,,,-8.77000000000,2.80000,
,,,-8.76960000000,3.00000,
,,,-8.76919900000,3.00000,
,,,-8.76880000000,3.00000,
,,,-8.76840000000,3.20000,
,,,-8.76800000000,3.40000,
,,,-8.76760000000,3.40000,
,,,-8.76720000000,3.60000,
,,,-8.76680000000,3.80000,
,,,-8.76639900000,3.80000,
,,,-8.76600000000,3.80000,
,,,-8.76560000000,3.80000,
,,,-8.76520000000,3.80000,
,,,-8.76480000000,4.00000,
,,,-8.76440000000,4.00000,
,,,-8.76400000000,3.80000,
,,,-8.76359900000,3.80000,
,,,-8.76320000000,3.80000,
,,,-8.76280000000,3.80000,
,,,-8.76240000000,3.80000,
,,,-8.76200000000,4.00000,
,,,-8.76160000000,3.80000,
,,,-8.76120000000,3.80000,
,,,-8.76079900000,3.80000,
,,,-8.76040000000,3.80000,
,,,-8.76000000000,3.60000,
,,,-8.75960000000,3.60000,
,,,-8.75920000000,3.40000,
,,,-8.75880000000,3.40000,
,,,-8.75840000000,3.20000,
,,,-8.75799900000,3.00000,
,,,-8.75760000000,3.00000,
,,,-8.75720000000,3.00000,
,,,-8.75680000000,2.80000,
,,,-8.75640000000,2.80000,
,,,-8.75600000000,2.80000,
,,,-8.75560000000,2.60000,
,,,-8.75519900000,2.40000,
,,,-8.75480000000,2.40000,
,,,-8.75440000000,2.20000,
,,,-8.75400000000,2.00000,
,,,-8.75360000000,1.80000,
,,,-8.75320000000,1.60000,
,,,-8.75280000000,1.60000,
,,,-8.75239900000,1.40000,
,,,-8.75200000000,1.20000,
,,,-8.75159900000,1.20000,
,,,-8.75120000000,1.00000,
,,,-8.75080000000,0.80000,
,,,-8.75040000000,0.80000,
,,,-8.75000000000,0.60000,
,,,-8.74959900000,0.60000,
,,,-8.74920000000,0.40000,
,,,-8.74879900000,0.40000,
,,,-8.74840000000,0.40000,
,,,-8.74800000000,0.20000,
,,,-8.74760000000,0.20000,
,,,-8.74720000000,0.00,
,,,-8.74679900000,-0.20000,
,,,-8.74640000000,-0.20000,
,,,-8.74599900000,-0.20000,
,,,-8.74560000000,-0.40000,
,,,-8.74520000000,-0.60000,
,,,-8.74480000000,-0.60000,
,,,-8.74440000000,-0.60000,
,,,-8.74399900000,-0.60000,
,,,-8.74360000000,-0.80000,
,,,-8.74319900000,-0.80000,
,,,-8.74280000000,-1.00000,
,,,-8.74240000000,-1.00000,
,,,-8.74200000000,-1.00000,
,,,-8.74160000000,-1.00000,
,,,-8.74119900000,-1.00000,
,,,-8.74080000000,-1.20000,
,,,-8.74039900000,-1.00000,
,,,-8.74000000000,-1.00000,
,,,-8.73960000000,-1.20000,
,,,-8.73920000000,-1.20000,
,,,-8.73880000000,-1.20000,
,,,-8.73840000000,-1.20000,
,,,-8.73800000000,-1.40000,
,,,-8.73759900000,-1.20000,
,,,-8.73720000000,-1.40000,
,,,-8.73680000000,-1.20000,
,,,-8.73640000000,-1.40000,
,,,-8.73600000000,-1.20000,
,,,-8.73560000000,-1.40000,
,,,-8.73520000000,-1.20000,
,,,-8.73479900000,-1.20000,
,,,-8.73440000000,-1.20000,
,,,-8.73400000000,-1.20000,
,,,-8.73360000000,-1.20000,
,,,-8.73320000000,-1.20000,
,,,-8.73280000000,-1.20000,
,,,-8.73240000000,-1.00000,
,,,-8.73199900000,-1.20000,
,,,-8.73160000000,-1.20000,
,,,-8.73120000000,-1.20000,
,,,-8.73080000000,-1.00000,
,,,-8.73040000000,-1.00000,
,,,-8.73000000000,-1.00000,
,,,-8.72960000000,-1.20000,
,,,-8.72919900000,-1.00000,
,,,-8.72880000000,-1.00000,
,,,-8.72840000000,-1.00000,
,,,-8.72800000000,-1.00000,
,,,-8.72760000000,-1.00000,
,,,-8.72720000000,-1.00000,
,,,-8.72680000000,-1.00000,
,,,-8.72639900000,-1.00000,
,,,-8.72600000000,-1.00000,
,,,-8.72560000000,-1.00000,
,,,-8.72520000000,-1.00000,
,,,-8.72480000000,-0.80000,
,,,-8.72440000000,-0.80000,
,,,-8.72400000000,-0.60000,
,,,-8.72359900000,-0.80000,
,,,-8.72320000000,-0.80000,
,,,-8.72280000000,-0.80000,
,,,-8.72240000000,-0.80000,
,,,-8.72200000000,-0.80000,
,,,-8.72160000000,-0.80000,
,,,-8.72120000000,-0.60000,
,,,-8.72079900000,-1.00000,
,,,-8.72040000000,-1.00000,
,,,-8.71999900000,-0.80000,
,,,-8.71960000000,-0.80000,
,,,-8.71920000000,-1.00000,
,,,-8.71880000000,-1.00000,
,,,-8.71840000000,-1.00000,
,,,-8.71799900000,-1.00000,
,,,-8.71760000000,-1.00000,
,,,-8.71719900000,-1.00000,
,,,-8.71680000000,-1.00000,
,,,-8.71640000000,-1.00000,
,,,-8.71600000000,-1.00000,
,,,-8.71560000000,-1.00000,
,,,-8.71519900000,-1.00000,
,,,-8.71480000000,-1.00000,
,,,-8.71439900000,-1.00000,
,,,-8.71400000000,-1.00000,
,,,-8.71360000000,-1.00000,
,,,-8.71320000000,-1.00000,
,,,-8.71280000000,-1.00000,
